…
## Cross validation

``` r
cv_df = 
  crossv_mc(bw_data, n=100) |> 
  mutate(
    train = map(train, as_tibble),
    test = map(test, as_tibble)
  )
# pull 1st one to see if it works
cv_df |> pull(train) |> nth(1)
```

    ## # A tibble: 3,473 × 20
    ##    babysex bhead blength   bwt delwt fincome frace gaweeks malform menarche
    ##    <fct>   <dbl>   <dbl> <dbl> <dbl>   <dbl> <dbl>   <dbl> <fct>      <dbl>
    ##  1 female     34      51  3629   177      35     1    39.9 absent        13
    ##  2 female     36      50  3345   148      85     1    39.9 absent        12
    ##  3 male       34      52  3062   157      55     1    40   absent        14
    ##  4 female     34      52  3374   156       5     1    41.6 absent        13
    ##  5 male       33      52  3374   129      55     1    40.7 absent        12
    ##  6 female     33      46  2523   126      96     2    40.3 absent        14
    ##  7 female     33      49  2778   140       5     1    37.4 absent        12
    ##  8 male       36      52  3515   146      85     1    40.3 absent        11
    ##  9 male       33      50  3459   169      75     2    40.7 absent        12
    ## 10 female     35      51  3317   130      55     1    43.4 absent        13
    ## # ℹ 3,463 more rows
    ## # ℹ 10 more variables: mheight <dbl>, momage <dbl>, mrace <dbl>, parity <dbl>,
    ## #   pnumlbw <dbl>, pnumsga <dbl>, ppbmi <dbl>, ppwt <dbl>, smoken <dbl>,
    ## #   wtgain <dbl>
…
